Printout for SDDS file comm-ring.pv

      Magnets             pv              Ipv      
---------------------------------------------------
        QH1G6C01B  SR:C01-MG{PS:QH1B}I:Sp1-SP  -3.810948e+01 
        QH2G6C01B  SR:C01-MG{PS:QH2B}I:Sp1-SP   8.842188e+01 
        QH3G6C01B  SR:C01-MG{PS:QH3B}I:Sp1-SP  -1.048043e+02 
        QL1G2C01A  SR:C01-MG{PS:QL1A}I:Sp1-SP  -9.715670e+01 
        QL2G2C01A  SR:C01-MG{PS:QL2A}I:Sp1-SP   1.098753e+02 
        QL3G2C01A  SR:C01-MG{PS:QL3A}I:Sp1-SP  -9.108302e+01 
        QM1G4C01A  SR:C01-MG{PS:QM1A}I:Sp1-SP  -9.120737e+01 
        QM1G4C01B  SR:C01-MG{PS:QM1B}I:Sp1-SP  -9.117146e+01 
        QM2G4C01A  SR:C01-MG{PS:QM2A}I:Sp1-SP   1.392366e+02 
        QM2G4C01B  SR:C01-MG{PS:QM2B}I:Sp1-SP   1.386169e+02 
        SH4G2C30A  SR:C01-MG{PS:SH4-P2}I:Sp1-SP  -3.773820e+01 
        SM1G4C30A  SR:C01-MG{PS:SM1A-P2}I:Sp1-SP  -5.630928e+01 
        QH1G2C02A  SR:C02-MG{PS:QH1A}I:Sp1-SP  -3.806660e+01 
        QH2G2C02A  SR:C02-MG{PS:QH2A}I:Sp1-SP   8.808282e+01 
        QH3G2C02A  SR:C02-MG{PS:QH3A}I:Sp1-SP  -1.048263e+02 
        QL1G6C02B  SR:C02-MG{PS:QL1B}I:Sp1-SP  -9.662710e+01 
        QL2G6C02B  SR:C02-MG{PS:QL2B}I:Sp1-SP   1.102222e+02 
        QL3G6C02B  SR:C02-MG{PS:QL3B}I:Sp1-SP  -9.047762e+01 
        QM1G4C02A  SR:C02-MG{PS:QM1A}I:Sp1-SP  -9.118792e+01 
        QM1G4C02B  SR:C02-MG{PS:QM1B}I:Sp1-SP  -9.123070e+01 
        QM2G4C02A  SR:C02-MG{PS:QM2A}I:Sp1-SP   1.382462e+02 
        QM2G4C02B  SR:C02-MG{PS:QM2B}I:Sp1-SP   1.392473e+02 
        SM1G4C30B  SR:C02-MG{PS:SM1B-P2}I:Sp1-SP  -6.208373e+01 
        SM2G4C30B  SR:C02-MG{PS:SM2B-P2}I:Sp1-SP   9.624153e+01 
        QH1G6C03B  SR:C03-MG{PS:QH1B}I:Sp1-SP  -3.831956e+01 
        QH2G6C03B  SR:C03-MG{PS:QH2B}I:Sp1-SP   8.826432e+01 
        QH3G6C03B  SR:C03-MG{PS:QH3B}I:Sp1-SP  -1.051052e+02 
        QL1G2C03A  SR:C03-MG{PS:QL1A}I:Sp1-SP  -9.641493e+01 
        QL2G2C03A  SR:C03-MG{PS:QL2A}I:Sp1-SP   1.099281e+02 
        QL3G2C03A  SR:C03-MG{PS:QL3A}I:Sp1-SP  -9.054315e+01 
        QM1G4C03A  SR:C03-MG{PS:QM1A}I:Sp1-SP  -9.125737e+01 
        QM1G4C03B  SR:C03-MG{PS:QM1B}I:Sp1-SP  -9.121342e+01 
        QM2G4C03A  SR:C03-MG{PS:QM2A}I:Sp1-SP   1.393565e+02 
        QM2G4C03B  SR:C03-MG{PS:QM2B}I:Sp1-SP   1.387675e+02 
        SL2G6C30B  SR:C03-MG{PS:SL2-P2}I:Sp1-SP   8.558576e+01 
        SL3G6C30B  SR:C03-MG{PS:SL3-P2}I:Sp1-SP  -7.050558e+01 
        QH1G2C04A  SR:C04-MG{PS:QH1A}I:Sp1-SP  -3.801356e+01 
        QH2G2C04A  SR:C04-MG{PS:QH2A}I:Sp1-SP   8.808529e+01 
        QH3G2C04A  SR:C04-MG{PS:QH3A}I:Sp1-SP  -1.050096e+02 
        QL1G6C04B  SR:C04-MG{PS:QL1B}I:Sp1-SP  -9.659439e+01 
        QL2G6C04B  SR:C04-MG{PS:QL2B}I:Sp1-SP   1.100283e+02 
        QL3G6C04B  SR:C04-MG{PS:QL3B}I:Sp1-SP  -9.040847e+01 
        QM1G4C04A  SR:C04-MG{PS:QM1A}I:Sp1-SP  -9.120178e+01 
        QM1G4C04B  SR:C04-MG{PS:QM1B}I:Sp1-SP  -9.122845e+01 
        QM2G4C04A  SR:C04-MG{PS:QM2A}I:Sp1-SP   1.393157e+02 
        QM2G4C04B  SR:C04-MG{PS:QM2B}I:Sp1-SP   1.393895e+02 
        SL1G6C30B  SR:C04-MG{PS:SL1-P2}I:Sp1-SP  -3.169553e+01 
        QH1G6C05B  SR:C05-MG{PS:QH1B}I:Sp1-SP  -3.828477e+01 
        QH2G6C05B  SR:C05-MG{PS:QH2B}I:Sp1-SP   8.846479e+01 
        QH3G6C05B  SR:C05-MG{PS:QH3B}I:Sp1-SP  -1.060764e+02 
        QL1G2C05A  SR:C05-MG{PS:QL1A}I:Sp1-SP  -9.651616e+01 
        QL2G2C05A  SR:C05-MG{PS:QL2A}I:Sp1-SP   1.100046e+02 
        QL3G2C05A  SR:C05-MG{PS:QL3A}I:Sp1-SP  -9.034508e+01 
        QM1G4C05A  SR:C05-MG{PS:QM1A}I:Sp1-SP  -9.123170e+01 
        QM1G4C05B  SR:C05-MG{PS:QM1B}I:Sp1-SP  -9.112677e+01 
        QM2G4C05A  SR:C05-MG{PS:QM2A}I:Sp1-SP   1.389638e+02 
        QM2G4C05B  SR:C05-MG{PS:QM2B}I:Sp1-SP   1.391501e+02 
        QH1G2C06A  SR:C06-MG{PS:QH1A}I:Sp1-SP  -3.812049e+01 
        QH2G2C06A  SR:C06-MG{PS:QH2A}I:Sp1-SP   8.804865e+01 
        QH3G2C06A  SR:C06-MG{PS:QH3A}I:Sp1-SP  -1.048527e+02 
        QL1G6C06B  SR:C06-MG{PS:QL1B}I:Sp1-SP  -9.717632e+01 
        QL2G6C06B  SR:C06-MG{PS:QL2B}I:Sp1-SP   1.099198e+02 
        QL3G6C06B  SR:C06-MG{PS:QL3B}I:Sp1-SP  -9.102921e+01 
        QM1G4C06A  SR:C06-MG{PS:QM1A}I:Sp1-SP  -9.109847e+01 
        QM1G4C06B  SR:C06-MG{PS:QM1B}I:Sp1-SP  -9.130271e+01 
        QM2G4C06A  SR:C06-MG{PS:QM2A}I:Sp1-SP   1.389950e+02 
        QM2G4C06B  SR:C06-MG{PS:QM2B}I:Sp1-SP   1.389973e+02 
        SH1G6C05B  SR:C06-MG{PS:SH1-P3}I:Sp1-SP   4.748687e+01 
        SH3G6C05B  SR:C06-MG{PS:SH3-P3}I:Sp1-SP  -1.372878e+01 
        QH1G6C07B  SR:C07-MG{PS:QH1B}I:Sp1-SP  -3.835028e+01 
        QH2G6C07B  SR:C07-MG{PS:QH2B}I:Sp1-SP   8.823431e+01 
        QH3G6C07B  SR:C07-MG{PS:QH3B}I:Sp1-SP  -9.854874e+01 
        QL1G2C07A  SR:C07-MG{PS:QL1A}I:Sp1-SP  -9.638412e+01 
        QL2G2C07A  SR:C07-MG{PS:QL2A}I:Sp1-SP   1.100120e+02 
        QL3G2C07A  SR:C07-MG{PS:QL3A}I:Sp1-SP  -9.110145e+01 
        QM1G4C07A  SR:C07-MG{PS:QM1A}I:Sp1-SP  -9.117626e+01 
        QM1G4C07B  SR:C07-MG{PS:QM1B}I:Sp1-SP  -9.120702e+01 
        QM2G4C07A  SR:C07-MG{PS:QM2A}I:Sp1-SP   1.390000e+02 
        QM2G4C07B  SR:C07-MG{PS:QM2B}I:Sp1-SP   1.392450e+02 
        SH4G6C05B  SR:C07-MG{PS:SH4-P3}I:Sp1-SP  -3.781272e+01 
        SM1G4C05A  SR:C07-MG{PS:SM1A-P3}I:Sp1-SP  -5.636905e+01 
        QH1G2C08A  SR:C08-MG{PS:QH1A}I:Sp1-SP  -3.837361e+01 
        QH2G2C08A  SR:C08-MG{PS:QH2A}I:Sp1-SP   8.807134e+01 
        QH3G2C08A  SR:C08-MG{PS:QH3A}I:Sp1-SP  -9.892903e+01 
        QL1G6C08B  SR:C08-MG{PS:QL1B}I:Sp1-SP  -9.643563e+01 
        QL2G6C08B  SR:C08-MG{PS:QL2B}I:Sp1-SP   1.096709e+02 
        QL3G6C08B  SR:C08-MG{PS:QL3B}I:Sp1-SP  -9.119160e+01 
        QM1G4C08A  SR:C08-MG{PS:QM1A}I:Sp1-SP  -9.126050e+01 
        QM1G4C08B  SR:C08-MG{PS:QM1B}I:Sp1-SP  -9.123647e+01 
        QM2G4C08A  SR:C08-MG{PS:QM2A}I:Sp1-SP   1.389987e+02 
        QM2G4C08B  SR:C08-MG{PS:QM2B}I:Sp1-SP   1.391749e+02 
        SH1G6C07B  SR:C08-MG{PS:SH1-DW08}I:Sp1-SP   4.745253e+01 
        SH3G6C07B  SR:C08-MG{PS:SH3-DW08}I:Sp1-SP  -1.372083e+01 
        SH4G6C07B  SR:C08-MG{PS:SH4-DW08}I:Sp1-SP  -3.779695e+01 
        SM1G4C05B  SR:C08-MG{PS:SM1B-P3}I:Sp1-SP  -6.211903e+01 
        SM2G4C05B  SR:C08-MG{PS:SM2B-P3}I:Sp1-SP   9.606008e+01 
        QH1G6C09B  SR:C09-MG{PS:QH1B}I:Sp1-SP  -3.824974e+01 
        QH2G6C09B  SR:C09-MG{PS:QH2B}I:Sp1-SP   8.816585e+01 
        QH3G6C09B  SR:C09-MG{PS:QH3B}I:Sp1-SP  -1.050543e+02 
        QL1G2C09A  SR:C09-MG{PS:QL1A}I:Sp1-SP  -9.642777e+01 
        QL2G2C09A  SR:C09-MG{PS:QL2A}I:Sp1-SP   1.096984e+02 
        QL3G2C09A  SR:C09-MG{PS:QL3A}I:Sp1-SP  -9.055565e+01 
        QM1G4C09A  SR:C09-MG{PS:QM1A}I:Sp1-SP  -9.131171e+01 
        QM1G4C09B  SR:C09-MG{PS:QM1B}I:Sp1-SP  -9.128838e+01 
        QM2G4C09A  SR:C09-MG{PS:QM2A}I:Sp1-SP   1.386606e+02 
        QM2G4C09B  SR:C09-MG{PS:QM2B}I:Sp1-SP   1.390927e+02 
        SL2G2C05A  SR:C09-MG{PS:SL2-P3}I:Sp1-SP   8.561150e+01 
        SL3G2C05A  SR:C09-MG{PS:SL3-P3}I:Sp1-SP  -7.048517e+01 
        QH1G2C10A  SR:C10-MG{PS:QH1A}I:Sp1-SP  -3.816065e+01 
        QH2G2C10A  SR:C10-MG{PS:QH2A}I:Sp1-SP   8.812154e+01 
        QH3G2C10A  SR:C10-MG{PS:QH3A}I:Sp1-SP  -1.054945e+02 
        QL1G6C10B  SR:C10-MG{PS:QL1B}I:Sp1-SP  -9.735219e+01 
        QL2G6C10B  SR:C10-MG{PS:QL2B}I:Sp1-SP   1.098747e+02 
        QL3G6C10B  SR:C10-MG{PS:QL3B}I:Sp1-SP  -9.089950e+01 
        QM1G4C10A  SR:C10-MG{PS:QM1A}I:Sp1-SP  -9.108445e+01 
        QM1G4C10B  SR:C10-MG{PS:QM1B}I:Sp1-SP  -9.117239e+01 
        QM2G4C10A  SR:C10-MG{PS:QM2A}I:Sp1-SP   1.390248e+02 
        QM2G4C10B  SR:C10-MG{PS:QM2B}I:Sp1-SP   1.391874e+02 
        SL1G2C05A  SR:C10-MG{PS:SL1-P3}I:Sp1-SP  -3.172526e+01 
        QH1G6C11B  SR:C11-MG{PS:QH1B}I:Sp1-SP  -3.827263e+01 
        QH2G6C11B  SR:C11-MG{PS:QH2B}I:Sp1-SP   8.839923e+01 
        QH3G6C11B  SR:C11-MG{PS:QH3B}I:Sp1-SP  -1.048132e+02 
        QL1G2C11A  SR:C11-MG{PS:QL1A}I:Sp1-SP  -9.710108e+01 
        QL2G2C11A  SR:C11-MG{PS:QL2A}I:Sp1-SP   1.096122e+02 
        QL3G2C11A  SR:C11-MG{PS:QL3A}I:Sp1-SP  -9.029400e+01 
        QM1G4C11A  SR:C11-MG{PS:QM1A}I:Sp1-SP  -9.127176e+01 
        QM1G4C11B  SR:C11-MG{PS:QM1B}I:Sp1-SP  -9.119587e+01 
        QM2G4C11A  SR:C11-MG{PS:QM2A}I:Sp1-SP   1.388544e+02 
        QM2G4C11B  SR:C11-MG{PS:QM2B}I:Sp1-SP   1.393415e+02 
        QH1G2C12A  SR:C12-MG{PS:QH1A}I:Sp1-SP  -3.829546e+01 
        QH2G2C12A  SR:C12-MG{PS:QH2A}I:Sp1-SP   8.802720e+01 
        QH3G2C12A  SR:C12-MG{PS:QH3A}I:Sp1-SP  -1.050458e+02 
        QL1G6C12B  SR:C12-MG{PS:QL1B}I:Sp1-SP  -9.739217e+01 
        QL2G6C12B  SR:C12-MG{PS:QL2B}I:Sp1-SP   1.100348e+02 
        QL3G6C12B  SR:C12-MG{PS:QL3B}I:Sp1-SP  -9.107531e+01 
        QM1G4C12A  SR:C12-MG{PS:QM1A}I:Sp1-SP  -9.116549e+01 
        QM1G4C12B  SR:C12-MG{PS:QM1B}I:Sp1-SP  -9.112000e+01 
        QM2G4C12A  SR:C12-MG{PS:QM2A}I:Sp1-SP   1.382328e+02 
        QM2G4C12B  SR:C12-MG{PS:QM2B}I:Sp1-SP   1.391105e+02 
        SH1G6C11B  SR:C12-MG{PS:SH1-P4}I:Sp1-SP   4.751860e+01 
        SH3G6C11B  SR:C12-MG{PS:SH3-P4}I:Sp1-SP  -1.372821e+01 
        QH1G6C13B  SR:C13-MG{PS:QH1B}I:Sp1-SP  -3.798677e+01 
        QH2G6C13B  SR:C13-MG{PS:QH2B}I:Sp1-SP   8.829195e+01 
        QH3G6C13B  SR:C13-MG{PS:QH3B}I:Sp1-SP  -1.050151e+02 
        QL1G2C13A  SR:C13-MG{PS:QL1A}I:Sp1-SP  -9.656670e+01 
        QL2G2C13A  SR:C13-MG{PS:QL2A}I:Sp1-SP   1.098959e+02 
        QL3G2C13A  SR:C13-MG{PS:QL3A}I:Sp1-SP  -9.043699e+01 
        QM1G4C13A  SR:C13-MG{PS:QM1A}I:Sp1-SP  -9.116964e+01 
        QM1G4C13B  SR:C13-MG{PS:QM1B}I:Sp1-SP  -9.122047e+01 
        QM2G4C13A  SR:C13-MG{PS:QM2A}I:Sp1-SP   1.391878e+02 
        QM2G4C13B  SR:C13-MG{PS:QM2B}I:Sp1-SP   1.394131e+02 
        SH4G6C11B  SR:C13-MG{PS:SH4-P4}I:Sp1-SP  -3.776618e+01 
        SM1G4C11A  SR:C13-MG{PS:SM1A-P4}I:Sp1-SP  -5.643082e+01 
        QH1G2C14A  SR:C14-MG{PS:QH1A}I:Sp1-SP  -3.793241e+01 
        QH2G2C14A  SR:C14-MG{PS:QH2A}I:Sp1-SP   8.837114e+01 
        QH3G2C14A  SR:C14-MG{PS:QH3A}I:Sp1-SP  -1.048683e+02 
        QL1G6C14B  SR:C14-MG{PS:QL1B}I:Sp1-SP  -9.637702e+01 
        QL2G6C14B  SR:C14-MG{PS:QL2B}I:Sp1-SP   1.100135e+02 
        QL3G6C14B  SR:C14-MG{PS:QL3B}I:Sp1-SP  -9.042736e+01 
        QM1G4C14A  SR:C14-MG{PS:QM1A}I:Sp1-SP  -9.124283e+01 
        QM1G4C14B  SR:C14-MG{PS:QM1B}I:Sp1-SP  -9.125174e+01 
        QM2G4C14A  SR:C14-MG{PS:QM2A}I:Sp1-SP   1.390746e+02 
        QM2G4C14B  SR:C14-MG{PS:QM2B}I:Sp1-SP   1.392713e+02 
        SM1G4C11B  SR:C14-MG{PS:SM1B-P4}I:Sp1-SP  -6.217197e+01 
        SM2G4C11B  SR:C14-MG{PS:SM2B-P4}I:Sp1-SP   9.608935e+01 
        QH1G6C15B  SR:C15-MG{PS:QH1B}I:Sp1-SP  -3.800697e+01 
        QH2G6C15B  SR:C15-MG{PS:QH2B}I:Sp1-SP   8.817220e+01 
        QH3G6C15B  SR:C15-MG{PS:QH3B}I:Sp1-SP  -1.048123e+02 
        QL1G2C15A  SR:C15-MG{PS:QL1A}I:Sp1-SP  -9.673929e+01 
        QL2G2C15A  SR:C15-MG{PS:QL2A}I:Sp1-SP   1.098810e+02 
        QL3G2C15A  SR:C15-MG{PS:QL3A}I:Sp1-SP  -9.028612e+01 
        QM1G4C15A  SR:C15-MG{PS:QM1A}I:Sp1-SP  -9.120124e+01 
        QM1G4C15B  SR:C15-MG{PS:QM1B}I:Sp1-SP  -9.122566e+01 
        QM2G4C15A  SR:C15-MG{PS:QM2A}I:Sp1-SP   1.386310e+02 
        QM2G4C15B  SR:C15-MG{PS:QM2B}I:Sp1-SP   1.390653e+02 
        SL2G2C11A  SR:C15-MG{PS:SL2-P4}I:Sp1-SP   8.568593e+01 
        SL3G2C11A  SR:C15-MG{PS:SL3-P4}I:Sp1-SP  -7.058832e+01 
        QH1G2C16A  SR:C16-MG{PS:QH1A}I:Sp1-SP  -3.807830e+01 
        QH2G2C16A  SR:C16-MG{PS:QH2A}I:Sp1-SP   8.844605e+01 
        QH3G2C16A  SR:C16-MG{PS:QH3A}I:Sp1-SP  -1.049170e+02 
        QL1G6C16B  SR:C16-MG{PS:QL1B}I:Sp1-SP  -9.643925e+01 
        QL2G6C16B  SR:C16-MG{PS:QL2B}I:Sp1-SP   1.099224e+02 
        QL3G6C16B  SR:C16-MG{PS:QL3B}I:Sp1-SP  -9.053950e+01 
        QM1G4C16A  SR:C16-MG{PS:QM1A}I:Sp1-SP  -9.116529e+01 
        QM1G4C16B  SR:C16-MG{PS:QM1B}I:Sp1-SP  -9.121699e+01 
        QM2G4C16A  SR:C16-MG{PS:QM2A}I:Sp1-SP   1.388720e+02 
        QM2G4C16B  SR:C16-MG{PS:QM2B}I:Sp1-SP   1.388153e+02 
        SL1G2C11A  SR:C16-MG{PS:SL1-P4}I:Sp1-SP  -3.171564e+01 
        QH1G6C17B  SR:C17-MG{PS:QH1B}I:Sp1-SP  -3.802890e+01 
        QH2G6C17B  SR:C17-MG{PS:QH2B}I:Sp1-SP   8.839181e+01 
        QH3G6C17B  SR:C17-MG{PS:QH3B}I:Sp1-SP  -9.855867e+01 
        QL1G2C17A  SR:C17-MG{PS:QL1A}I:Sp1-SP  -9.669515e+01 
        QL2G2C17A  SR:C17-MG{PS:QL2A}I:Sp1-SP   1.099597e+02 
        QL3G2C17A  SR:C17-MG{PS:QL3A}I:Sp1-SP  -9.030682e+01 
        QM1G4C17A  SR:C17-MG{PS:QM1A}I:Sp1-SP  -9.117755e+01 
        QM1G4C17B  SR:C17-MG{PS:QM1B}I:Sp1-SP  -9.118390e+01 
        QM2G4C17A  SR:C17-MG{PS:QM2A}I:Sp1-SP   1.388653e+02 
        QM2G4C17B  SR:C17-MG{PS:QM2B}I:Sp1-SP   1.394493e+02 
        QH1G2C18A  SR:C18-MG{PS:QH1A}I:Sp1-SP  -3.812335e+01 
        QH2G2C18A  SR:C18-MG{PS:QH2A}I:Sp1-SP   8.841441e+01 
        QH3G2C18A  SR:C18-MG{PS:QH3A}I:Sp1-SP  -9.829474e+01 
        QL1G6C18B  SR:C18-MG{PS:QL1B}I:Sp1-SP  -9.672761e+01 
        QL2G6C18B  SR:C18-MG{PS:QL2B}I:Sp1-SP   1.101265e+02 
        QL3G6C18B  SR:C18-MG{PS:QL3B}I:Sp1-SP  -9.050291e+01 
        QM1G4C18A  SR:C18-MG{PS:QM1A}I:Sp1-SP  -9.123370e+01 
        QM1G4C18B  SR:C18-MG{PS:QM1B}I:Sp1-SP  -9.113251e+01 
        QM2G4C18A  SR:C18-MG{PS:QM2A}I:Sp1-SP   1.392178e+02 
        QM2G4C18B  SR:C18-MG{PS:QM2B}I:Sp1-SP   1.391678e+02 
        SH1G6C17B  SR:C18-MG{PS:SH1-DW18}I:Sp1-SP   4.749233e+01 
        SH1G6C19B  SR:C18-MG{PS:SH1-P5}I:Sp1-SP   4.752624e+01 
        SH3G6C17B  SR:C18-MG{PS:SH3-DW18}I:Sp1-SP  -1.372394e+01 
        SH3G6C19B  SR:C18-MG{PS:SH3-P5}I:Sp1-SP  -1.374312e+01 
        SH4G6C17B  SR:C18-MG{PS:SH4-DW18}I:Sp1-SP  -3.777226e+01 
        QH1G6C19B  SR:C19-MG{PS:QH1B}I:Sp1-SP  -3.811623e+01 
        QH2G6C19B  SR:C19-MG{PS:QH2B}I:Sp1-SP   8.821872e+01 
        QH3G6C19B  SR:C19-MG{PS:QH3B}I:Sp1-SP  -1.049962e+02 
        QL1G2C19A  SR:C19-MG{PS:QL1A}I:Sp1-SP  -9.627387e+01 
        QL2G2C19A  SR:C19-MG{PS:QL2A}I:Sp1-SP   1.100793e+02 
        QL3G2C19A  SR:C19-MG{PS:QL3A}I:Sp1-SP  -9.040835e+01 
        QM1G4C19A  SR:C19-MG{PS:QM1A}I:Sp1-SP  -9.114251e+01 
        QM1G4C19B  SR:C19-MG{PS:QM1B}I:Sp1-SP  -9.114732e+01 
        QM2G4C19A  SR:C19-MG{PS:QM2A}I:Sp1-SP   1.386042e+02 
        QM2G4C19B  SR:C19-MG{PS:QM2B}I:Sp1-SP   1.386567e+02 
        SH4G6C19B  SR:C19-MG{PS:SH4-P5}I:Sp1-SP  -3.777375e+01 
        SM1G4C17A  SR:C19-MG{PS:SM1A-P5}I:Sp1-SP  -5.650902e+01 
        QH1G2C20A  SR:C20-MG{PS:QH1A}I:Sp1-SP  -3.803907e+01 
        QH2G2C20A  SR:C20-MG{PS:QH2A}I:Sp1-SP   8.821135e+01 
        QH3G2C20A  SR:C20-MG{PS:QH3A}I:Sp1-SP  -1.050087e+02 
        QL1G6C20B  SR:C20-MG{PS:QL1B}I:Sp1-SP  -9.694587e+01 
        QL2G6C20B  SR:C20-MG{PS:QL2B}I:Sp1-SP   1.097575e+02 
        QL3G6C20B  SR:C20-MG{PS:QL3B}I:Sp1-SP  -9.027767e+01 
        QM1G4C20A  SR:C20-MG{PS:QM1A}I:Sp1-SP  -9.112980e+01 
        QM1G4C20B  SR:C20-MG{PS:QM1B}I:Sp1-SP  -9.114511e+01 
        QM2G4C20A  SR:C20-MG{PS:QM2A}I:Sp1-SP   1.388575e+02 
        QM2G4C20B  SR:C20-MG{PS:QM2B}I:Sp1-SP   1.390170e+02 
        SM1G4C17B  SR:C20-MG{PS:SM1B-P5}I:Sp1-SP  -6.215406e+01 
        SM2G4C17B  SR:C20-MG{PS:SM2B-P5}I:Sp1-SP   9.515942e+01 
        QH1G6C21B  SR:C21-MG{PS:QH1B}I:Sp1-SP  -3.802014e+01 
        QH2G6C21B  SR:C21-MG{PS:QH2B}I:Sp1-SP   8.820498e+01 
        QH3G6C21B  SR:C21-MG{PS:QH3B}I:Sp1-SP  -1.051978e+02 
        QL1G2C21A  SR:C21-MG{PS:QL1A}I:Sp1-SP  -9.676780e+01 
        QL2G2C21A  SR:C21-MG{PS:QL2A}I:Sp1-SP   1.099652e+02 
        QL3G2C21A  SR:C21-MG{PS:QL3A}I:Sp1-SP  -9.040931e+01 
        QM1G4C21A  SR:C21-MG{PS:QM1A}I:Sp1-SP  -9.120789e+01 
        QM1G4C21B  SR:C21-MG{PS:QM1B}I:Sp1-SP  -9.115889e+01 
        QM2G4C21A  SR:C21-MG{PS:QM2A}I:Sp1-SP   1.389503e+02 
        QM2G4C21B  SR:C21-MG{PS:QM2B}I:Sp1-SP   1.384098e+02 
        SL2G2C17A  SR:C21-MG{PS:SL2-P5}I:Sp1-SP   8.559992e+01 
        SL3G2C17A  SR:C21-MG{PS:SL3-P5}I:Sp1-SP  -7.048102e+01 
        QH1G2C22A  SR:C22-MG{PS:QH1A}I:Sp1-SP  -3.803154e+01 
        QH2G2C22A  SR:C22-MG{PS:QH2A}I:Sp1-SP   8.811280e+01 
        QH3G2C22A  SR:C22-MG{PS:QH3A}I:Sp1-SP  -1.052749e+02 
        QL1G6C22B  SR:C22-MG{PS:QL1B}I:Sp1-SP  -9.676618e+01 
        QL2G6C22B  SR:C22-MG{PS:QL2B}I:Sp1-SP   1.099064e+02 
        QL3G6C22B  SR:C22-MG{PS:QL3B}I:Sp1-SP  -9.056093e+01 
        QM1G4C22A  SR:C22-MG{PS:QM1A}I:Sp1-SP  -9.121256e+01 
        QM1G4C22B  SR:C22-MG{PS:QM1B}I:Sp1-SP  -9.115808e+01 
        QM2G4C22A  SR:C22-MG{PS:QM2A}I:Sp1-SP   1.386204e+02 
        QM2G4C22B  SR:C22-MG{PS:QM2B}I:Sp1-SP   1.390512e+02 
        SL1G2C17A  SR:C22-MG{PS:SL1-P5}I:Sp1-SP  -3.175294e+01 
        QH1G6C23B  SR:C23-MG{PS:QH1B}I:Sp1-SP  -3.806539e+01 
        QH2G6C23B  SR:C23-MG{PS:QH2B}I:Sp1-SP   8.821788e+01 
        QH3G6C23B  SR:C23-MG{PS:QH3B}I:Sp1-SP  -1.047833e+02 
        QL1G2C23A  SR:C23-MG{PS:QL1A}I:Sp1-SP  -9.631162e+01 
        QL2G2C23A  SR:C23-MG{PS:QL2A}I:Sp1-SP   1.101089e+02 
        QL3G2C23A  SR:C23-MG{PS:QL3A}I:Sp1-SP  -9.048740e+01 
        QM1G4C23A  SR:C23-MG{PS:QM1A}I:Sp1-SP  -9.120196e+01 
        QM1G4C23B  SR:C23-MG{PS:QM1B}I:Sp1-SP  -9.125623e+01 
        QM2G4C23A  SR:C23-MG{PS:QM2A}I:Sp1-SP   1.392905e+02 
        QM2G4C23B  SR:C23-MG{PS:QM2B}I:Sp1-SP   1.389424e+02 
        QH1G2C24A  SR:C24-MG{PS:QH1A}I:Sp1-SP  -3.810872e+01 
        QH2G2C24A  SR:C24-MG{PS:QH2A}I:Sp1-SP   8.812169e+01 
        QH3G2C24A  SR:C24-MG{PS:QH3A}I:Sp1-SP  -1.049521e+02 
        QL1G6C24B  SR:C24-MG{PS:QL1B}I:Sp1-SP  -9.788517e+01 
        QL2G6C24B  SR:C24-MG{PS:QL2B}I:Sp1-SP   1.099140e+02 
        QL3G6C24B  SR:C24-MG{PS:QL3B}I:Sp1-SP  -9.163653e+01 
        QM1G4C24A  SR:C24-MG{PS:QM1A}I:Sp1-SP  -9.129887e+01 
        QM1G4C24B  SR:C24-MG{PS:QM1B}I:Sp1-SP  -9.064662e+01 
        QM2G4C24A  SR:C24-MG{PS:QM2A}I:Sp1-SP   1.385965e+02 
        QM2G4C24B  SR:C24-MG{PS:QM2B}I:Sp1-SP   1.386369e+02 
        SH1G6C23B  SR:C24-MG{PS:SH1-P1}I:Sp1-SP   4.744974e+01 
        SH3G6C23B  SR:C24-MG{PS:SH3-P1}I:Sp1-SP  -1.368155e+01 
        QH1G6C25B  SR:C25-MG{PS:QH1B}I:Sp1-SP  -3.824095e+01 
        QH2G6C25B  SR:C25-MG{PS:QH2B}I:Sp1-SP   8.796454e+01 
        QH3G6C25B  SR:C25-MG{PS:QH3B}I:Sp1-SP  -1.063691e+02 
        QL1G2C25A  SR:C25-MG{PS:QL1A}I:Sp1-SP  -9.781532e+01 
        QL2G2C25A  SR:C25-MG{PS:QL2A}I:Sp1-SP   1.098906e+02 
        QL3G2C25A  SR:C25-MG{PS:QL3A}I:Sp1-SP  -9.132757e+01 
        QM1G4C25A  SR:C25-MG{PS:QM1A}I:Sp1-SP  -9.113914e+01 
        QM1G4C25B  SR:C25-MG{PS:QM1B}I:Sp1-SP  -9.101914e+01 
        QM2G4C25A  SR:C25-MG{PS:QM2A}I:Sp1-SP   1.384716e+02 
        QM2G4C25B  SR:C25-MG{PS:QM2B}I:Sp1-SP   1.393273e+02 
        SH4G6C23B  SR:C25-MG{PS:SH4-P1}I:Sp1-SP  -3.772131e+01 
        SM1G4C23A  SR:C25-MG{PS:SM1A-P1}I:Sp1-SP  -5.644971e+01 
        QH1G2C26A  SR:C26-MG{PS:QH1A}I:Sp1-SP  -3.809576e+01 
        QH2G2C26A  SR:C26-MG{PS:QH2A}I:Sp1-SP   8.808630e+01 
        QH3G2C26A  SR:C26-MG{PS:QH3A}I:Sp1-SP  -1.056862e+02 
        QL1G6C26B  SR:C26-MG{PS:QL1B}I:Sp1-SP  -9.710830e+01 
        QL2G6C26B  SR:C26-MG{PS:QL2B}I:Sp1-SP   1.098235e+02 
        QL3G6C26B  SR:C26-MG{PS:QL3B}I:Sp1-SP  -9.099156e+01 
        QM1G4C26A  SR:C26-MG{PS:QM1A}I:Sp1-SP  -9.119119e+01 
        QM1G4C26B  SR:C26-MG{PS:QM1B}I:Sp1-SP  -9.114218e+01 
        QM2G4C26A  SR:C26-MG{PS:QM2A}I:Sp1-SP   1.393995e+02 
        QM2G4C26B  SR:C26-MG{PS:QM2B}I:Sp1-SP   1.394427e+02 
        SM1G4C23B  SR:C26-MG{PS:SM1B-P1}I:Sp1-SP  -6.214002e+01 
        SM2G4C23B  SR:C26-MG{PS:SM2B-P1}I:Sp1-SP   9.609566e+01 
        QH1G6C27B  SR:C27-MG{PS:QH1B}I:Sp1-SP  -3.824885e+01 
        QH2G6C27B  SR:C27-MG{PS:QH2B}I:Sp1-SP   8.844001e+01 
        QH3G6C27B  SR:C27-MG{PS:QH3B}I:Sp1-SP  -9.840405e+01 
        QL1G2C27A  SR:C27-MG{PS:QL1A}I:Sp1-SP  -9.659412e+01 
        QL2G2C27A  SR:C27-MG{PS:QL2A}I:Sp1-SP   1.098832e+02 
        QL3G2C27A  SR:C27-MG{PS:QL3A}I:Sp1-SP  -9.044882e+01 
        QM1G4C27A  SR:C27-MG{PS:QM1A}I:Sp1-SP  -9.115773e+01 
        QM1G4C27B  SR:C27-MG{PS:QM1B}I:Sp1-SP  -9.117326e+01 
        QM2G4C27A  SR:C27-MG{PS:QM2A}I:Sp1-SP   1.385860e+02 
        QM2G4C27B  SR:C27-MG{PS:QM2B}I:Sp1-SP   1.386766e+02 
        SL2G2C23A  SR:C27-MG{PS:SL2-P1}I:Sp1-SP   8.557596e+01 
        SL3G2C23A  SR:C27-MG{PS:SL3-P1}I:Sp1-SP  -7.043310e+01 
        QH1G2C28A  SR:C28-MG{PS:QH1A}I:Sp1-SP  -3.825247e+01 
        QH2G2C28A  SR:C28-MG{PS:QH2A}I:Sp1-SP   8.830406e+01 
        QH3G2C28A  SR:C28-MG{PS:QH3A}I:Sp1-SP  -9.855485e+01 
        QL1G6C28B  SR:C28-MG{PS:QL1B}I:Sp1-SP  -9.726571e+01 
        QL2G6C28B  SR:C28-MG{PS:QL2B}I:Sp1-SP   1.098897e+02 
        QL3G6C28B  SR:C28-MG{PS:QL3B}I:Sp1-SP  -9.100595e+01 
        QM1G4C28A  SR:C28-MG{PS:QM1A}I:Sp1-SP  -9.105651e+01 
        QM1G4C28B  SR:C28-MG{PS:QM1B}I:Sp1-SP  -9.118262e+01 
        QM2G4C28A  SR:C28-MG{PS:QM2A}I:Sp1-SP   1.385582e+02 
        QM2G4C28B  SR:C28-MG{PS:QM2B}I:Sp1-SP   1.398419e+02 
        SH1G6C27B  SR:C28-MG{PS:SH1-DW28}I:Sp1-SP   4.751835e+01 
        SH3G6C27B  SR:C28-MG{PS:SH3-DW28}I:Sp1-SP  -1.372426e+01 
        SH4G6C27B  SR:C28-MG{PS:SH4-DW28}I:Sp1-SP  -3.782374e+01 
        SL1G2C23A  SR:C28-MG{PS:SL1-P1}I:Sp1-SP  -3.172445e+01 
        QH1G6C29B  SR:C29-MG{PS:QH1B}I:Sp1-SP  -3.826555e+01 
        QH2G6C29B  SR:C29-MG{PS:QH2B}I:Sp1-SP   8.809155e+01 
        QH3G6C29B  SR:C29-MG{PS:QH3B}I:Sp1-SP  -1.060452e+02 
        QL1G2C29A  SR:C29-MG{PS:QL1A}I:Sp1-SP  -9.726046e+01 
        QL2G2C29A  SR:C29-MG{PS:QL2A}I:Sp1-SP   1.097700e+02 
        QL3G2C29A  SR:C29-MG{PS:QL3A}I:Sp1-SP  -9.096665e+01 
        QM1G4C29A  SR:C29-MG{PS:QM1A}I:Sp1-SP  -9.127200e+01 
        QM1G4C29B  SR:C29-MG{PS:QM1B}I:Sp1-SP  -9.122978e+01 
        QM2G4C29A  SR:C29-MG{PS:QM2A}I:Sp1-SP   1.386724e+02 
        QM2G4C29B  SR:C29-MG{PS:QM2B}I:Sp1-SP   1.387663e+02 
        QH1G2C30A  SR:C30-MG{PS:QH1A}I:Sp1-SP  -3.827183e+01 
        QH2G2C30A  SR:C30-MG{PS:QH2A}I:Sp1-SP   8.824937e+01 
        QH3G2C30A  SR:C30-MG{PS:QH3A}I:Sp1-SP  -1.055625e+02 
        QL1G6C30B  SR:C30-MG{PS:QL1B}I:Sp1-SP  -9.665885e+01 
        QL2G6C30B  SR:C30-MG{PS:QL2B}I:Sp1-SP   1.106173e+02 
        QL3G6C30B  SR:C30-MG{PS:QL3B}I:Sp1-SP  -9.039043e+01 
        QM1G4C30A  SR:C30-MG{PS:QM1A}I:Sp1-SP  -9.112005e+01 
        QM1G4C30B  SR:C30-MG{PS:QM1B}I:Sp1-SP  -9.117784e+01 
        QM2G4C30A  SR:C30-MG{PS:QM2A}I:Sp1-SP   1.387932e+02 
        QM2G4C30B  SR:C30-MG{PS:QM2B}I:Sp1-SP   1.386824e+02 
        SH1G2C30A  SR:C30-MG{PS:SH1-P2}I:Sp1-SP   4.749235e+01 
        SH3G2C30A  SR:C30-MG{PS:SH3-P2}I:Sp1-SP  -1.372748e+01 
