Printout for SDDS file stdin

      Magnets             pv          Ipv 
------------------------------------------
       CH1XG6C01B  SR:C01-MG{PS:CH1B}I:Sp1-SP  0.697876 
       CH1YG6C01B  SR:C01-MG{PS:CH1B}I:Sp2-SP  0.00873185 
       CH2XG6C01B  SR:C01-MG{PS:CH2B}I:Sp1-SP  -0.510602 
       CH2YG6C01B  SR:C01-MG{PS:CH2B}I:Sp2-SP  0.12828 
       CL1XG2C01A  SR:C01-MG{PS:CL1A}I:Sp1-SP  -1.38618 
       CL1YG2C01A  SR:C01-MG{PS:CL1A}I:Sp2-SP  0.0526444 
       CL2XG2C01A  SR:C01-MG{PS:CL2A}I:Sp1-SP  1.44808 
       CL2YG2C01A  SR:C01-MG{PS:CL2A}I:Sp2-SP  0.191662 
       CM1XG4C01A  SR:C01-MG{PS:CM1A}I:Sp1-SP  -0.899646 
       CM1YG4C01A  SR:C01-MG{PS:CM1A}I:Sp2-SP  -0.207752 
       CM1XG4C01B  SR:C01-MG{PS:CM1B}I:Sp1-SP  0.304396 
       CM1YG4C01B  SR:C01-MG{PS:CM1B}I:Sp2-SP  0.028516 
       CH1XG2C02A  SR:C02-MG{PS:CH1A}I:Sp1-SP  0.243967 
       CH1YG2C02A  SR:C02-MG{PS:CH1A}I:Sp2-SP  -0.07914 
       CH2XG2C02A  SR:C02-MG{PS:CH2A}I:Sp1-SP  -1.24659 
       CH2YG2C02A  SR:C02-MG{PS:CH2A}I:Sp2-SP  0.0119505 
       CL1XG6C02B  SR:C02-MG{PS:CL1B}I:Sp1-SP  -0.354295 
       CL1YG6C02B  SR:C02-MG{PS:CL1B}I:Sp2-SP  0.3014 
       CL2XG6C02B  SR:C02-MG{PS:CL2B}I:Sp1-SP  0.585455 
       CL2YG6C02B  SR:C02-MG{PS:CL2B}I:Sp2-SP  -0.189533 
       CM1XG4C02A  SR:C02-MG{PS:CM1A}I:Sp1-SP  1.12782 
       CM1YG4C02A  SR:C02-MG{PS:CM1A}I:Sp2-SP  -0.190476 
       CM1XG4C02B  SR:C02-MG{PS:CM1B}I:Sp1-SP  -1.0801 
       CM1YG4C02B  SR:C02-MG{PS:CM1B}I:Sp2-SP  0.0676031 
       CH1XG6C03B  SR:C03-MG{PS:CH1B}I:Sp1-SP  -0.16082 
       CH1YG6C03B  SR:C03-MG{PS:CH1B}I:Sp2-SP  0.0498574 
       CH2XG6C03B  SR:C03-MG{PS:CH2B}I:Sp1-SP  0.263642 
       CH2YG6C03B  SR:C03-MG{PS:CH2B}I:Sp2-SP  -0.106939 
       CL1XG2C03A  SR:C03-MG{PS:CL1A}I:Sp1-SP  -0.319755 
       CL1YG2C03A  SR:C03-MG{PS:CL1A}I:Sp2-SP  0.54491 
       CL2XG2C03A  SR:C03-MG{PS:CL2A}I:Sp1-SP  0.776542 
       CL2YG2C03A  SR:C03-MG{PS:CL2A}I:Sp2-SP  0.185967 
       CM1XG4C03A  SR:C03-MG{PS:CM1A}I:Sp1-SP  -0.0943491 
       CM1YG4C03A  SR:C03-MG{PS:CM1A}I:Sp2-SP  -0.596503 
       CM1XG4C03B  SR:C03-MG{PS:CM1B}I:Sp1-SP  -0.334925 
       CM1YG4C03B  SR:C03-MG{PS:CM1B}I:Sp2-SP  -0.0421357 
       CH1XG2C04A  SR:C04-MG{PS:CH1A}I:Sp1-SP  0.458942 
       CH1YG2C04A  SR:C04-MG{PS:CH1A}I:Sp2-SP  -0.0376053 
       CH2XG2C04A  SR:C04-MG{PS:CH2A}I:Sp1-SP  -0.573764 
       CH2YG2C04A  SR:C04-MG{PS:CH2A}I:Sp2-SP  0.041669 
       CL1XG6C04B  SR:C04-MG{PS:CL1B}I:Sp1-SP  -0.52445 
       CL1YG6C04B  SR:C04-MG{PS:CL1B}I:Sp2-SP  -0.152758 
       CL2XG6C04B  SR:C04-MG{PS:CL2B}I:Sp1-SP  0.295949 
       CL2YG6C04B  SR:C04-MG{PS:CL2B}I:Sp2-SP  0.282616 
       CM1XG4C04A  SR:C04-MG{PS:CM1A}I:Sp1-SP  0.242143 
       CM1YG4C04A  SR:C04-MG{PS:CM1A}I:Sp2-SP  0.0298442 
       CM1XG4C04B  SR:C04-MG{PS:CM1B}I:Sp1-SP  0.191107 
       CM1YG4C04B  SR:C04-MG{PS:CM1B}I:Sp2-SP  -0.0670735 
       CH1XG6C05B  SR:C05-MG{PS:CH1B}I:Sp1-SP  0.271053 
       CH1YG6C05B  SR:C05-MG{PS:CH1B}I:Sp2-SP  0.0217592 
       CH2XG6C05B  SR:C05-MG{PS:CH2B}I:Sp1-SP  -0.494304 
       CH2YG6C05B  SR:C05-MG{PS:CH2B}I:Sp2-SP  -0.125179 
       CL1XG2C05A  SR:C05-MG{PS:CL1A}I:Sp1-SP  0.388088 
       CL1YG2C05A  SR:C05-MG{PS:CL1A}I:Sp2-SP  -0.249511 
       CL2XG2C05A  SR:C05-MG{PS:CL2A}I:Sp1-SP  -0.218265 
       CL2YG2C05A  SR:C05-MG{PS:CL2A}I:Sp2-SP  -0.0583667 
       CM1XG4C05A  SR:C05-MG{PS:CM1A}I:Sp1-SP  0.177091 
       CM1YG4C05A  SR:C05-MG{PS:CM1A}I:Sp2-SP  0.0407122 
       CM1XG4C05B  SR:C05-MG{PS:CM1B}I:Sp1-SP  0.255317 
       CM1YG4C05B  SR:C05-MG{PS:CM1B}I:Sp2-SP  -0.0315304 
       CH1XG2C06A  SR:C06-MG{PS:CH1A}I:Sp1-SP  -0.36183 
       CH1YG2C06A  SR:C06-MG{PS:CH1A}I:Sp2-SP  0.10436 
       CH2XG2C06A  SR:C06-MG{PS:CH2A}I:Sp1-SP  0.782093 
       CH2YG2C06A  SR:C06-MG{PS:CH2A}I:Sp2-SP  0.156523 
       CL1XG6C06B  SR:C06-MG{PS:CL1B}I:Sp1-SP  1.04982 
       CL1YG6C06B  SR:C06-MG{PS:CL1B}I:Sp2-SP  0.0836382 
       CL2XG6C06B  SR:C06-MG{PS:CL2B}I:Sp1-SP  -1.09008 
       CL2YG6C06B  SR:C06-MG{PS:CL2B}I:Sp2-SP  0.493778 
       CM1XG4C06A  SR:C06-MG{PS:CM1A}I:Sp1-SP  -0.717756 
       CM1YG4C06A  SR:C06-MG{PS:CM1A}I:Sp2-SP  -0.0822946 
       CM1XG4C06B  SR:C06-MG{PS:CM1B}I:Sp1-SP  0.270045 
       CM1YG4C06B  SR:C06-MG{PS:CM1B}I:Sp2-SP  -0.430569 
       CH1XG6C07B  SR:C07-MG{PS:CH1B}I:Sp1-SP  0.166234 
       CH1YG6C07B  SR:C07-MG{PS:CH1B}I:Sp2-SP  -0.190046 
       CH2XG6C07B  SR:C07-MG{PS:CH2B}I:Sp1-SP  0.0521826 
       CH2YG6C07B  SR:C07-MG{PS:CH2B}I:Sp2-SP  0.14038 
       CL1XG2C07A  SR:C07-MG{PS:CL1A}I:Sp1-SP  0.443855 
       CL1YG2C07A  SR:C07-MG{PS:CL1A}I:Sp2-SP  -0.155537 
       CL2XG2C07A  SR:C07-MG{PS:CL2A}I:Sp1-SP  -0.532424 
       CL2YG2C07A  SR:C07-MG{PS:CL2A}I:Sp2-SP  0.0749243 
       CM1XG4C07A  SR:C07-MG{PS:CM1A}I:Sp1-SP  0.0684551 
       CM1YG4C07A  SR:C07-MG{PS:CM1A}I:Sp2-SP  0.0500925 
       CM1XG4C07B  SR:C07-MG{PS:CM1B}I:Sp1-SP  -0.422294 
       CM1YG4C07B  SR:C07-MG{PS:CM1B}I:Sp2-SP  -0.0200959 
       CH1XG2C08A  SR:C08-MG{PS:CH1A}I:Sp1-SP  0.0233151 
       CH1YG2C08A  SR:C08-MG{PS:CH1A}I:Sp2-SP  0.0560171 
       CH2XG2C08A  SR:C08-MG{PS:CH2A}I:Sp1-SP  0.117404 
       CH2YG2C08A  SR:C08-MG{PS:CH2A}I:Sp2-SP  0.0891597 
       CL1XG6C08B  SR:C08-MG{PS:CL1B}I:Sp1-SP  -0.449359 
       CL1YG6C08B  SR:C08-MG{PS:CL1B}I:Sp2-SP  0.128556 
       CL2XG6C08B  SR:C08-MG{PS:CL2B}I:Sp1-SP  0.541831 
       CL2YG6C08B  SR:C08-MG{PS:CL2B}I:Sp2-SP  -0.379596 
       CM1XG4C08A  SR:C08-MG{PS:CM1A}I:Sp1-SP  -0.0740987 
       CM1YG4C08A  SR:C08-MG{PS:CM1A}I:Sp2-SP  -0.217128 
       CM1XG4C08B  SR:C08-MG{PS:CM1B}I:Sp1-SP  -0.510616 
       CM1YG4C08B  SR:C08-MG{PS:CM1B}I:Sp2-SP  0.137728 
       CH1XG6C09B  SR:C09-MG{PS:CH1B}I:Sp1-SP  -0.0902036 
       CH1YG6C09B  SR:C09-MG{PS:CH1B}I:Sp2-SP  0.1699 
       CH2XG6C09B  SR:C09-MG{PS:CH2B}I:Sp1-SP  -0.107875 
       CH2YG6C09B  SR:C09-MG{PS:CH2B}I:Sp2-SP  0.0577862 
       CL1XG2C09A  SR:C09-MG{PS:CL1A}I:Sp1-SP  -1.18064 
       CL1YG2C09A  SR:C09-MG{PS:CL1A}I:Sp2-SP  -0.0439592 
       CL2XG2C09A  SR:C09-MG{PS:CL2A}I:Sp1-SP  0.817961 
       CL2YG2C09A  SR:C09-MG{PS:CL2A}I:Sp2-SP  0.0363477 
       CM1XG4C09A  SR:C09-MG{PS:CM1A}I:Sp1-SP  0.037857 
       CM1YG4C09A  SR:C09-MG{PS:CM1A}I:Sp2-SP  -0.0458889 
       CM1XG4C09B  SR:C09-MG{PS:CM1B}I:Sp1-SP  -0.1445 
       CM1YG4C09B  SR:C09-MG{PS:CM1B}I:Sp2-SP  -0.137937 
       CH1XG2C10A  SR:C10-MG{PS:CH1A}I:Sp1-SP  0.482774 
       CH1YG2C10A  SR:C10-MG{PS:CH1A}I:Sp2-SP  0.10448 
       CH2XG2C10A  SR:C10-MG{PS:CH2A}I:Sp1-SP  -0.984979 
       CH2YG2C10A  SR:C10-MG{PS:CH2A}I:Sp2-SP  0.117208 
       CL1XG6C10B  SR:C10-MG{PS:CL1B}I:Sp1-SP  -0.657222 
       CL1YG6C10B  SR:C10-MG{PS:CL1B}I:Sp2-SP  -0.216343 
       CL2XG6C10B  SR:C10-MG{PS:CL2B}I:Sp1-SP  0.381262 
       CL2YG6C10B  SR:C10-MG{PS:CL2B}I:Sp2-SP  0.397803 
       CM1XG4C10A  SR:C10-MG{PS:CM1A}I:Sp1-SP  0.704968 
       CM1YG4C10A  SR:C10-MG{PS:CM1A}I:Sp2-SP  -0.0115294 
       CM1XG4C10B  SR:C10-MG{PS:CM1B}I:Sp1-SP  -0.0329718 
       CM1YG4C10B  SR:C10-MG{PS:CM1B}I:Sp2-SP  -0.346796 
       CH1XG6C11B  SR:C11-MG{PS:CH1B}I:Sp1-SP  -1.59552 
       CH1YG6C11B  SR:C11-MG{PS:CH1B}I:Sp2-SP  0.254817 
       CH2XG6C11B  SR:C11-MG{PS:CH2B}I:Sp1-SP  2.54411 
       CH2YG6C11B  SR:C11-MG{PS:CH2B}I:Sp2-SP  -0.224444 
       CL1XG2C11A  SR:C11-MG{PS:CL1A}I:Sp1-SP  -0.212672 
       CL1YG2C11A  SR:C11-MG{PS:CL1A}I:Sp2-SP  0.0469317 
       CL2XG2C11A  SR:C11-MG{PS:CL2A}I:Sp1-SP  0.629729 
       CL2YG2C11A  SR:C11-MG{PS:CL2A}I:Sp2-SP  0.0905167 
       CM1XG4C11A  SR:C11-MG{PS:CM1A}I:Sp1-SP  -0.412364 
       CM1YG4C11A  SR:C11-MG{PS:CM1A}I:Sp2-SP  -0.211945 
       CM1XG4C11B  SR:C11-MG{PS:CM1B}I:Sp1-SP  -0.723726 
       CM1YG4C11B  SR:C11-MG{PS:CM1B}I:Sp2-SP  0.0916063 
       CH1XG2C12A  SR:C12-MG{PS:CH1A}I:Sp1-SP  0.135878 
       CH1YG2C12A  SR:C12-MG{PS:CH1A}I:Sp2-SP  -0.0926345 
       CH2XG2C12A  SR:C12-MG{PS:CH2A}I:Sp1-SP  -0.0555047 
       CH2YG2C12A  SR:C12-MG{PS:CH2A}I:Sp2-SP  0.0434791 
       CL1XG6C12B  SR:C12-MG{PS:CL1B}I:Sp1-SP  -0.129815 
       CL1YG6C12B  SR:C12-MG{PS:CL1B}I:Sp2-SP  -0.122626 
       CL2XG6C12B  SR:C12-MG{PS:CL2B}I:Sp1-SP  0.101109 
       CL2YG6C12B  SR:C12-MG{PS:CL2B}I:Sp2-SP  0.296743 
       CM1XG4C12A  SR:C12-MG{PS:CM1A}I:Sp1-SP  -0.094559 
       CM1YG4C12A  SR:C12-MG{PS:CM1A}I:Sp2-SP  0.00993524 
       CM1XG4C12B  SR:C12-MG{PS:CM1B}I:Sp1-SP  0.0765255 
       CM1YG4C12B  SR:C12-MG{PS:CM1B}I:Sp2-SP  -0.334964 
       CH1XG6C13B  SR:C13-MG{PS:CH1B}I:Sp1-SP  -0.105466 
       CH1YG6C13B  SR:C13-MG{PS:CH1B}I:Sp2-SP  -0.107206 
       CH2XG6C13B  SR:C13-MG{PS:CH2B}I:Sp1-SP  -0.273213 
       CH2YG6C13B  SR:C13-MG{PS:CH2B}I:Sp2-SP  -0.24674 
       CL1XG2C13A  SR:C13-MG{PS:CL1A}I:Sp1-SP  0.199305 
       CL1YG2C13A  SR:C13-MG{PS:CL1A}I:Sp2-SP  -0.05852 
       CL2XG2C13A  SR:C13-MG{PS:CL2A}I:Sp1-SP  -0.141766 
       CL2YG2C13A  SR:C13-MG{PS:CL2A}I:Sp2-SP  -0.167066 
       CM1XG4C13A  SR:C13-MG{PS:CM1A}I:Sp1-SP  -0.395174 
       CM1YG4C13A  SR:C13-MG{PS:CM1A}I:Sp2-SP  0.0614398 
       CM1XG4C13B  SR:C13-MG{PS:CM1B}I:Sp1-SP  0.450304 
       CM1YG4C13B  SR:C13-MG{PS:CM1B}I:Sp2-SP  0.396605 
       CH1XG2C14A  SR:C14-MG{PS:CH1A}I:Sp1-SP  -0.191171 
       CH1YG2C14A  SR:C14-MG{PS:CH1A}I:Sp2-SP  0.0628723 
       CH2XG2C14A  SR:C14-MG{PS:CH2A}I:Sp1-SP  0.494275 
       CH2YG2C14A  SR:C14-MG{PS:CH2A}I:Sp2-SP  -0.339274 
       CL1XG6C14B  SR:C14-MG{PS:CL1B}I:Sp1-SP  -0.113975 
       CL1YG6C14B  SR:C14-MG{PS:CL1B}I:Sp2-SP  0.0736172 
       CL2XG6C14B  SR:C14-MG{PS:CL2B}I:Sp1-SP  -0.170328 
       CL2YG6C14B  SR:C14-MG{PS:CL2B}I:Sp2-SP  -0.524215 
       CM1XG4C14A  SR:C14-MG{PS:CM1A}I:Sp1-SP  -0.222977 
       CM1YG4C14A  SR:C14-MG{PS:CM1A}I:Sp2-SP  0.116306 
       CM1XG4C14B  SR:C14-MG{PS:CM1B}I:Sp1-SP  0.331106 
       CM1YG4C14B  SR:C14-MG{PS:CM1B}I:Sp2-SP  0.467921 
       CH1XG6C15B  SR:C15-MG{PS:CH1B}I:Sp1-SP  0.506415 
       CH1YG6C15B  SR:C15-MG{PS:CH1B}I:Sp2-SP  0.00923543 
       CH2XG6C15B  SR:C15-MG{PS:CH2B}I:Sp1-SP  -0.920683 
       CH2YG6C15B  SR:C15-MG{PS:CH2B}I:Sp2-SP  0.234191 
       CL1XG2C15A  SR:C15-MG{PS:CL1A}I:Sp1-SP  -0.0191858 
       CL1YG2C15A  SR:C15-MG{PS:CL1A}I:Sp2-SP  -0.166317 
       CL2XG2C15A  SR:C15-MG{PS:CL2A}I:Sp1-SP  0.353537 
       CL2YG2C15A  SR:C15-MG{PS:CL2A}I:Sp2-SP  0.149293 
       CM1XG4C15A  SR:C15-MG{PS:CM1A}I:Sp1-SP  -0.236102 
       CM1YG4C15A  SR:C15-MG{PS:CM1A}I:Sp2-SP  -0.108936 
       CM1XG4C15B  SR:C15-MG{PS:CM1B}I:Sp1-SP  0.506363 
       CM1YG4C15B  SR:C15-MG{PS:CM1B}I:Sp2-SP  -0.239103 
       CH1XG2C16A  SR:C16-MG{PS:CH1A}I:Sp1-SP  0.211796 
       CH1YG2C16A  SR:C16-MG{PS:CH1A}I:Sp2-SP  -0.00631382 
       CH2XG2C16A  SR:C16-MG{PS:CH2A}I:Sp1-SP  -0.222823 
       CH2YG2C16A  SR:C16-MG{PS:CH2A}I:Sp2-SP  -0.0272592 
       CL1XG6C16B  SR:C16-MG{PS:CL1B}I:Sp1-SP  0.413657 
       CL1YG6C16B  SR:C16-MG{PS:CL1B}I:Sp2-SP  -0.330266 
       CL2XG6C16B  SR:C16-MG{PS:CL2B}I:Sp1-SP  -0.198823 
       CL2YG6C16B  SR:C16-MG{PS:CL2B}I:Sp2-SP  0.368702 
       CM1XG4C16A  SR:C16-MG{PS:CM1A}I:Sp1-SP  -0.0354322 
       CM1YG4C16A  SR:C16-MG{PS:CM1A}I:Sp2-SP  0.021792 
       CM1XG4C16B  SR:C16-MG{PS:CM1B}I:Sp1-SP  0.00389467 
       CM1YG4C16B  SR:C16-MG{PS:CM1B}I:Sp2-SP  -0.230644 
       CH1XG6C17B  SR:C17-MG{PS:CH1B}I:Sp1-SP  -0.261467 
       CH1YG6C17B  SR:C17-MG{PS:CH1B}I:Sp2-SP  0.122116 
       CH2XG6C17B  SR:C17-MG{PS:CH2B}I:Sp1-SP  0.320606 
       CH2YG6C17B  SR:C17-MG{PS:CH2B}I:Sp2-SP  -0.116106 
       CL1XG2C17A  SR:C17-MG{PS:CL1A}I:Sp1-SP  0.36189 
       CL1YG2C17A  SR:C17-MG{PS:CL1A}I:Sp2-SP  0.0730829 
       CL2XG2C17A  SR:C17-MG{PS:CL2A}I:Sp1-SP  -0.287593 
       CL2YG2C17A  SR:C17-MG{PS:CL2A}I:Sp2-SP  0.74999 
       CM1XG4C17A  SR:C17-MG{PS:CM1A}I:Sp1-SP  -0.241437 
       CM1YG4C17A  SR:C17-MG{PS:CM1A}I:Sp2-SP  -0.411201 
       CM1XG4C17B  SR:C17-MG{PS:CM1B}I:Sp1-SP  0.295518 
       CM1YG4C17B  SR:C17-MG{PS:CM1B}I:Sp2-SP  0.0223776 
       CH1XG2C18A  SR:C18-MG{PS:CH1A}I:Sp1-SP  -0.131031 
       CH1YG2C18A  SR:C18-MG{PS:CH1A}I:Sp2-SP  0.0880074 
       CH2XG2C18A  SR:C18-MG{PS:CH2A}I:Sp1-SP  0.175035 
       CH2YG2C18A  SR:C18-MG{PS:CH2A}I:Sp2-SP  -0.298911 
       CL1XG6C18B  SR:C18-MG{PS:CL1B}I:Sp1-SP  2.1937 
       CL1YG6C18B  SR:C18-MG{PS:CL1B}I:Sp2-SP  0.2411 
       CL2XG6C18B  SR:C18-MG{PS:CL2B}I:Sp1-SP  -2.16335 
       CL2YG6C18B  SR:C18-MG{PS:CL2B}I:Sp2-SP  -0.442737 
       CM1XG4C18A  SR:C18-MG{PS:CM1A}I:Sp1-SP  -0.342647 
       CM1YG4C18A  SR:C18-MG{PS:CM1A}I:Sp2-SP  0.201698 
       CM1XG4C18B  SR:C18-MG{PS:CM1B}I:Sp1-SP  0.615875 
       CM1YG4C18B  SR:C18-MG{PS:CM1B}I:Sp2-SP  0.25427 
       CH1XG6C19B  SR:C19-MG{PS:CH1B}I:Sp1-SP  -0.1954 
       CH1YG6C19B  SR:C19-MG{PS:CH1B}I:Sp2-SP  0.0612707 
       CH2XG6C19B  SR:C19-MG{PS:CH2B}I:Sp1-SP  -0.058402 
       CH2YG6C19B  SR:C19-MG{PS:CH2B}I:Sp2-SP  -0.47745 
       CL1XG2C19A  SR:C19-MG{PS:CL1A}I:Sp1-SP  0.135008 
       CL1YG2C19A  SR:C19-MG{PS:CL1A}I:Sp2-SP  -0.281927 
       CL2XG2C19A  SR:C19-MG{PS:CL2A}I:Sp1-SP  -0.3998 
       CL2YG2C19A  SR:C19-MG{PS:CL2A}I:Sp2-SP  0.238341 
       CM1XG4C19A  SR:C19-MG{PS:CM1A}I:Sp1-SP  -0.0603853 
       CM1YG4C19A  SR:C19-MG{PS:CM1A}I:Sp2-SP  -0.168878 
       CM1XG4C19B  SR:C19-MG{PS:CM1B}I:Sp1-SP  0.439637 
       CM1YG4C19B  SR:C19-MG{PS:CM1B}I:Sp2-SP  0.569637 
       CH1XG2C20A  SR:C20-MG{PS:CH1A}I:Sp1-SP  0.194136 
       CH1YG2C20A  SR:C20-MG{PS:CH1A}I:Sp2-SP  0.0354494 
       CH2XG2C20A  SR:C20-MG{PS:CH2A}I:Sp1-SP  -0.540539 
       CH2YG2C20A  SR:C20-MG{PS:CH2A}I:Sp2-SP  0.392543 
       CL1XG6C20B  SR:C20-MG{PS:CL1B}I:Sp1-SP  -0.472577 
       CL1YG6C20B  SR:C20-MG{PS:CL1B}I:Sp2-SP  -0.193485 
       CL2XG6C20B  SR:C20-MG{PS:CL2B}I:Sp1-SP  0.400985 
       CL2YG6C20B  SR:C20-MG{PS:CL2B}I:Sp2-SP  0.0573082 
       CM1XG4C20A  SR:C20-MG{PS:CM1A}I:Sp1-SP  0.354053 
       CM1YG4C20A  SR:C20-MG{PS:CM1A}I:Sp2-SP  -0.480469 
       CM1XG4C20B  SR:C20-MG{PS:CM1B}I:Sp1-SP  -0.143347 
       CM1YG4C20B  SR:C20-MG{PS:CM1B}I:Sp2-SP  0.0304498 
       CH1XG6C21B  SR:C21-MG{PS:CH1B}I:Sp1-SP  0.166353 
       CH1YG6C21B  SR:C21-MG{PS:CH1B}I:Sp2-SP  -0.0240974 
       CH2XG6C21B  SR:C21-MG{PS:CH2B}I:Sp1-SP  -0.629237 
       CH2YG6C21B  SR:C21-MG{PS:CH2B}I:Sp2-SP  -0.260604 
       CL1XG2C21A  SR:C21-MG{PS:CL1A}I:Sp1-SP  0.405835 
       CL1YG2C21A  SR:C21-MG{PS:CL1A}I:Sp2-SP  0.297908 
       CL2XG2C21A  SR:C21-MG{PS:CL2A}I:Sp1-SP  -0.235155 
       CL2YG2C21A  SR:C21-MG{PS:CL2A}I:Sp2-SP  -0.0564318 
       CM1XG4C21A  SR:C21-MG{PS:CM1A}I:Sp1-SP  0.28246 
       CM1YG4C21A  SR:C21-MG{PS:CM1A}I:Sp2-SP  -0.0290949 
       CM1XG4C21B  SR:C21-MG{PS:CM1B}I:Sp1-SP  0.373623 
       CM1YG4C21B  SR:C21-MG{PS:CM1B}I:Sp2-SP  0.146272 
       CH1XG2C22A  SR:C22-MG{PS:CH1A}I:Sp1-SP  -0.238113 
       CH1YG2C22A  SR:C22-MG{PS:CH1A}I:Sp2-SP  0.000687258 
       CH2XG2C22A  SR:C22-MG{PS:CH2A}I:Sp1-SP  1.09839 
       CH2YG2C22A  SR:C22-MG{PS:CH2A}I:Sp2-SP  0.129466 
       CL1XG6C22B  SR:C22-MG{PS:CL1B}I:Sp1-SP  -0.992525 
       CL1YG6C22B  SR:C22-MG{PS:CL1B}I:Sp2-SP  -0.131925 
       CL2XG6C22B  SR:C22-MG{PS:CL2B}I:Sp1-SP  0.693649 
       CL2YG6C22B  SR:C22-MG{PS:CL2B}I:Sp2-SP  0.437474 
       CM1XG4C22A  SR:C22-MG{PS:CM1A}I:Sp1-SP  -0.99325 
       CM1YG4C22A  SR:C22-MG{PS:CM1A}I:Sp2-SP  -0.0468274 
       CM1XG4C22B  SR:C22-MG{PS:CM1B}I:Sp1-SP  -0.0352122 
       CM1YG4C22B  SR:C22-MG{PS:CM1B}I:Sp2-SP  -0.68468 
       CH1XG6C23B  SR:C23-MG{PS:CH1B}I:Sp1-SP  0.0647523 
       CH1YG6C23B  SR:C23-MG{PS:CH1B}I:Sp2-SP  0.115428 
       CH2XG6C23B  SR:C23-MG{PS:CH2B}I:Sp1-SP  -0.349305 
       CH2YG6C23B  SR:C23-MG{PS:CH2B}I:Sp2-SP  0.131955 
       CL1XG2C23A  SR:C23-MG{PS:CL1A}I:Sp1-SP  -1.40001 
       CL1YG2C23A  SR:C23-MG{PS:CL1A}I:Sp2-SP  -0.0569529 
       CL2XG2C23A  SR:C23-MG{PS:CL2A}I:Sp1-SP  2.27432 
       CL2YG2C23A  SR:C23-MG{PS:CL2A}I:Sp2-SP  0.152772 
       CM1XG4C23A  SR:C23-MG{PS:CM1A}I:Sp1-SP  -1.47448 
       CM1YG4C23A  SR:C23-MG{PS:CM1A}I:Sp2-SP  0.388146 
       CM1XG4C23B  SR:C23-MG{PS:CM1B}I:Sp1-SP  0.237556 
       CM1YG4C23B  SR:C23-MG{PS:CM1B}I:Sp2-SP  -0.296269 
       CH1XG2C24A  SR:C24-MG{PS:CH1A}I:Sp1-SP  0.213979 
       CH1YG2C24A  SR:C24-MG{PS:CH1A}I:Sp2-SP  0.163601 
       CH2XG2C24A  SR:C24-MG{PS:CH2A}I:Sp1-SP  -0.419513 
       CH2YG2C24A  SR:C24-MG{PS:CH2A}I:Sp2-SP  -0.225535 
       CL1XG6C24B  SR:C24-MG{PS:CL1B}I:Sp1-SP  0.899077 
       CL1YG6C24B  SR:C24-MG{PS:CL1B}I:Sp2-SP  -0.263206 
       CL2XG6C24B  SR:C24-MG{PS:CL2B}I:Sp1-SP  -0.511559 
       CL2YG6C24B  SR:C24-MG{PS:CL2B}I:Sp2-SP  0.107128 
       CM1XG4C24A  SR:C24-MG{PS:CM1A}I:Sp1-SP  0.43909 
       CM1YG4C24A  SR:C24-MG{PS:CM1A}I:Sp2-SP  0.000743349 
       CM1XG4C24B  SR:C24-MG{PS:CM1B}I:Sp1-SP  0.0960334 
       CM1YG4C24B  SR:C24-MG{PS:CM1B}I:Sp2-SP  0.0172252 
       CH1XG6C25B  SR:C25-MG{PS:CH1B}I:Sp1-SP  0.25591 
       CH1YG6C25B  SR:C25-MG{PS:CH1B}I:Sp2-SP  0.276593 
       CH2XG6C25B  SR:C25-MG{PS:CH2B}I:Sp1-SP  -0.0359248 
       CH2YG6C25B  SR:C25-MG{PS:CH2B}I:Sp2-SP  -0.243314 
       CL1XG2C25A  SR:C25-MG{PS:CL1A}I:Sp1-SP  -0.465126 
       CL1YG2C25A  SR:C25-MG{PS:CL1A}I:Sp2-SP  0.0688171 
       CL2XG2C25A  SR:C25-MG{PS:CL2A}I:Sp1-SP  -0.280855 
       CL2YG2C25A  SR:C25-MG{PS:CL2A}I:Sp2-SP  0.122619 
       CM1XG4C25A  SR:C25-MG{PS:CM1A}I:Sp1-SP  0.423858 
       CM1YG4C25A  SR:C25-MG{PS:CM1A}I:Sp2-SP  -0.104573 
       CM1XG4C25B  SR:C25-MG{PS:CM1B}I:Sp1-SP  0.00311693 
       CM1YG4C25B  SR:C25-MG{PS:CM1B}I:Sp2-SP  0.147221 
       CH1XG2C26A  SR:C26-MG{PS:CH1A}I:Sp1-SP  -0.446165 
       CH1YG2C26A  SR:C26-MG{PS:CH1A}I:Sp2-SP  -0.211933 
       CH2XG2C26A  SR:C26-MG{PS:CH2A}I:Sp1-SP  0.594267 
       CH2YG2C26A  SR:C26-MG{PS:CH2A}I:Sp2-SP  -0.277766 
       CL1XG6C26B  SR:C26-MG{PS:CL1B}I:Sp1-SP  -1.34848 
       CL1YG6C26B  SR:C26-MG{PS:CL1B}I:Sp2-SP  0.0583912 
       CL2XG6C26B  SR:C26-MG{PS:CL2B}I:Sp1-SP  1.40275 
       CL2YG6C26B  SR:C26-MG{PS:CL2B}I:Sp2-SP  -0.595124 
       CM1XG4C26A  SR:C26-MG{PS:CM1A}I:Sp1-SP  0.0942381 
       CM1YG4C26A  SR:C26-MG{PS:CM1A}I:Sp2-SP  0.411426 
       CM1XG4C26B  SR:C26-MG{PS:CM1B}I:Sp1-SP  0.091093 
       CM1YG4C26B  SR:C26-MG{PS:CM1B}I:Sp2-SP  0.199493 
       CH1XG6C27B  SR:C27-MG{PS:CH1B}I:Sp1-SP  -0.632462 
       CH1YG6C27B  SR:C27-MG{PS:CH1B}I:Sp2-SP  0.251729 
       CH2XG6C27B  SR:C27-MG{PS:CH2B}I:Sp1-SP  0.781514 
       CH2YG6C27B  SR:C27-MG{PS:CH2B}I:Sp2-SP  -0.113852 
       CL1XG2C27A  SR:C27-MG{PS:CL1A}I:Sp1-SP  0.148311 
       CL1YG2C27A  SR:C27-MG{PS:CL1A}I:Sp2-SP  0.0450735 
       CL2XG2C27A  SR:C27-MG{PS:CL2A}I:Sp1-SP  0.183863 
       CL2YG2C27A  SR:C27-MG{PS:CL2A}I:Sp2-SP  0.34013 
       CM1XG4C27A  SR:C27-MG{PS:CM1A}I:Sp1-SP  0.196029 
       CM1YG4C27A  SR:C27-MG{PS:CM1A}I:Sp2-SP  -0.478951 
       CM1XG4C27B  SR:C27-MG{PS:CM1B}I:Sp1-SP  -0.210852 
       CM1YG4C27B  SR:C27-MG{PS:CM1B}I:Sp2-SP  0.151698 
       CH1XG2C28A  SR:C28-MG{PS:CH1A}I:Sp1-SP  0.713714 
       CH1YG2C28A  SR:C28-MG{PS:CH1A}I:Sp2-SP  -0.160789 
       CH2XG2C28A  SR:C28-MG{PS:CH2A}I:Sp1-SP  -0.73951 
       CH2YG2C28A  SR:C28-MG{PS:CH2A}I:Sp2-SP  0.0739583 
       CL1XG6C28B  SR:C28-MG{PS:CL1B}I:Sp1-SP  0.86024 
       CL1YG6C28B  SR:C28-MG{PS:CL1B}I:Sp2-SP  -0.200913 
       CL2XG6C28B  SR:C28-MG{PS:CL2B}I:Sp1-SP  -1.1308 
       CL2YG6C28B  SR:C28-MG{PS:CL2B}I:Sp2-SP  -0.0779175 
       CM1XG4C28A  SR:C28-MG{PS:CM1A}I:Sp1-SP  0.231535 
       CM1YG4C28A  SR:C28-MG{PS:CM1A}I:Sp2-SP  -0.409323 
       CM1XG4C28B  SR:C28-MG{PS:CM1B}I:Sp1-SP  0.245804 
       CM1YG4C28B  SR:C28-MG{PS:CM1B}I:Sp2-SP  0.295007 
       CH1XG6C29B  SR:C29-MG{PS:CH1B}I:Sp1-SP  -0.406042 
       CH1YG6C29B  SR:C29-MG{PS:CH1B}I:Sp2-SP  0.326795 
       CH2XG6C29B  SR:C29-MG{PS:CH2B}I:Sp1-SP  0.774814 
       CH2YG6C29B  SR:C29-MG{PS:CH2B}I:Sp2-SP  -0.306151 
       CL1XG2C29A  SR:C29-MG{PS:CL1A}I:Sp1-SP  1.43202 
       CL1YG2C29A  SR:C29-MG{PS:CL1A}I:Sp2-SP  0.0190711 
       CL2XG2C29A  SR:C29-MG{PS:CL2A}I:Sp1-SP  -0.847329 
       CL2YG2C29A  SR:C29-MG{PS:CL2A}I:Sp2-SP  0.190991 
       CM1XG4C29A  SR:C29-MG{PS:CM1A}I:Sp1-SP  -0.388961 
       CM1YG4C29A  SR:C29-MG{PS:CM1A}I:Sp2-SP  -0.0903562 
       CM1XG4C29B  SR:C29-MG{PS:CM1B}I:Sp1-SP  -0.29219 
       CM1YG4C29B  SR:C29-MG{PS:CM1B}I:Sp2-SP  0.387815 
       CH1XG2C30A  SR:C30-MG{PS:CH1A}I:Sp1-SP  -0.692366 
       CH1YG2C30A  SR:C30-MG{PS:CH1A}I:Sp2-SP  -0.00485286 
       CH2XG2C30A  SR:C30-MG{PS:CH2A}I:Sp1-SP  0.630006 
       CH2YG2C30A  SR:C30-MG{PS:CH2A}I:Sp2-SP  -0.308215 
       CL1XG6C30B  SR:C30-MG{PS:CL1B}I:Sp1-SP  -0.72456 
       CL1YG6C30B  SR:C30-MG{PS:CL1B}I:Sp2-SP  0.306496 
       CL2XG6C30B  SR:C30-MG{PS:CL2B}I:Sp1-SP  0.711645 
       CL2YG6C30B  SR:C30-MG{PS:CL2B}I:Sp2-SP  -0.532748 
       CM1XG4C30A  SR:C30-MG{PS:CM1A}I:Sp1-SP  -0.444144 
       CM1YG4C30A  SR:C30-MG{PS:CM1A}I:Sp2-SP  0.0846217 
       CM1XG4C30B  SR:C30-MG{PS:CM1B}I:Sp1-SP  0.0108507 
       CM1YG4C30B  SR:C30-MG{PS:CM1B}I:Sp2-SP  0.110325 
